\BOOKMARK [0][-]{chapter.1}{Get TAPIS}{}% 1
\BOOKMARK [1][-]{section.1.1}{Required packages}{chapter.1}% 2
\BOOKMARK [1][-]{section.1.2}{Download}{chapter.1}% 3
\BOOKMARK [1][-]{section.1.3}{Install}{chapter.1}% 4
\BOOKMARK [0][-]{chapter.2}{Tutorial}{}% 5
\BOOKMARK [1][-]{section.2.1}{Align reads}{chapter.2}% 6
\BOOKMARK [1][-]{section.2.2}{Creating indexed, sorted BAM files}{chapter.2}% 7
\BOOKMARK [1][-]{section.2.3}{Running TAPIS}{chapter.2}% 8
\BOOKMARK [1][-]{section.2.4}{Interpreting TAPIS output}{chapter.2}% 9
\BOOKMARK [0][-]{chapter.3}{Contact}{}% 10
\BOOKMARK [0][-]{chapter*.4}{Bibliography}{}% 11
